ID;boardID_ID;paperID_code;paperMat;papMatDescr;
d5de3429-838b-44e0-880c-1f717024776d;d5de3429-838b-44e0-880c-1f717024775d;L1;8585858;Kraft Liner 110;
d5de3429-838b-44e0-880c-1f717024777d;d5de3429-838b-44e0-880c-1f717024775d;M1;8585885;Test Liner 120;
d5de3429-838b-44e0-880c-1f717024778d;d5de3429-838b-44e0-880c-1f717024775d;L2;8458458;Kraft Liner 110;
d5de3429-838b-44e0-880c-1f717024779d;d5de3429-838b-44e0-880c-1f717024575d;L1;8585858;Kraft Liner 110;
d5de3429-838b-44e0-880c-1f717024780d;d5de3429-838b-44e0-880c-1f717024575d;M1;8585885;Test Liner 120;
d5de3429-838b-44e0-880c-1f717024781d;d5de3429-838b-44e0-880c-1f717024575d;L2;8458458;Kraft Liner 110;
d5de3429-838b-44e0-880c-1f717024782d;d5de3429-838b-44e0-880c-1f717024575d;M2;8585885;Test Liner 120;
d5de3429-838b-44e0-880c-1f717024783d;d5de3429-838b-44e0-880c-1f717024575d;L3;8458458;Kraft Liner 110;